%YAML 1.1
%TAG !u! tag:unity3d.com,2011:
--- !u!114 &11400000
MonoBehaviour:
  m_ObjectHideFlags: 0
  m_CorrespondingSourceObject: {fileID: 0}
  m_PrefabInstance: {fileID: 0}
  m_PrefabAsset: {fileID: 0}
  m_GameObject: {fileID: 0}
  m_Enabled: 1
  m_EditorHideFlags: 0
  m_Script: {fileID: 42938266, guid: e743331561ef77147ae48cda9bcb8209, type: 3}
  m_Name: PlayMakerGlobals
  m_EditorClassIdentifier: 
  variables:
    floatVariables:
    - useVariable: 1
      name: Cancel
      tooltip: 
      showInInspector: 0
      networkSync: 0
      value: 0
    - useVariable: 1
      name: Horizontal
      tooltip: 
      showInInspector: 0
      networkSync: 0
      value: 0
    - useVariable: 1
      name: InputMagnitude
      tooltip: 
      showInInspector: 0
      networkSync: 0
      value: 0
    - useVariable: 1
      name: Jump
      tooltip: 
      showInInspector: 0
      networkSync: 0
      value: 0
    - useVariable: 1
      name: PauseAxis
      tooltip: 
      showInInspector: 0
      networkSync: 0
      value: 0
    - useVariable: 1
      name: Submit
      tooltip: 
      showInInspector: 0
      networkSync: 0
      value: 0
    - useVariable: 1
      name: Vertical
      tooltip: 
      showInInspector: 0
      networkSync: 0
      value: 0
    - useVariable: 1
      name: rotVALUE
      tooltip: 
      showInInspector: 0
      networkSync: 0
      value: 0
    intVariables:
    - useVariable: 1
      name: PlayerHealth
      tooltip: 
      showInInspector: 0
      networkSync: 0
      value: 0
    - useVariable: 1
      name: buttonValue
      tooltip: 
      showInInspector: 0
      networkSync: 0
      value: 1
    boolVariables:
    - useVariable: 1
      name: IsPaused
      tooltip: 
      showInInspector: 0
      networkSync: 0
      value: 0
    - useVariable: 1
      name: lockWheel
      tooltip: 
      showInInspector: 0
      networkSync: 0
      value: 0
    stringVariables: []
    vector2Variables: []
    vector3Variables: []
    colorVariables: []
    rectVariables: []
    quaternionVariables: []
    gameObjectVariables:
    - useVariable: 1
      name: CharacterObject
      tooltip: 
      showInInspector: 0
      networkSync: 0
      value: {fileID: 0}
    objectVariables: []
    materialVariables: []
    textureVariables: []
    arrayVariables: []
    enumVariables: []
    categories:
    - 
    variableCategoryIDs: 00000000000000000000000000000000000000000000000000000000000000000000000000000000000000000000000000000000
  events:
  - Jumping
  - FireAttacking
  - IceAttacking
  - OVERHEAT
  - OVERHEAT_ICE
