%YAML 1.1
%TAG !u! tag:unity3d.com,2011:
--- !u!114 &-2226411092820487969
MonoBehaviour:
  m_ObjectHideFlags: 0
  m_CorrespondingSourceObject: {fileID: 0}
  m_PrefabInstance: {fileID: 0}
  m_PrefabAsset: {fileID: 0}
  m_GameObject: {fileID: 0}
  m_Enabled: 1
  m_EditorHideFlags: 0
  m_Script: {fileID: 11500000, guid: 33897084c7891e54eb6df4c02cb4118d, type: 3}
  m_Name: Branch
  m_EditorClassIdentifier: 
  seed: 892
  id: 725717443
  parent: {fileID: 6675924545984750120}
  chiildren:
  - {fileID: 1692017977678766647}
  enabled: 1
  showDeleteButton: 1
  rect:
    serializedVersion: 2
    x: 30
    y: 34
    width: 200
    height: 37
  deleteRect:
    serializedVersion: 2
    x: 200
    y: 43
    width: 18
    height: 18
  length: 9
  lengthCurve:
    serializedVersion: 2
    m_Curve:
    - serializedVersion: 3
      time: 0
      value: 1
      inSlope: 0
      outSlope: -0.19999999
      tangentMode: 0
      weightedMode: 0
      inWeight: 0
      outWeight: 0
    - serializedVersion: 3
      time: 1
      value: 0.8
      inSlope: -0.19999999
      outSlope: 0
      tangentMode: 0
      weightedMode: 0
      inWeight: 0
      outWeight: 0
    m_PreInfinity: 2
    m_PostInfinity: 2
    m_RotationOrder: 4
  resolution: 1
  number: 20
  splitProba: 0.1
  angle: 0.7
  shape:
    serializedVersion: 2
    m_Curve:
    - serializedVersion: 3
      time: 0
      value: 1
      inSlope: 0
      outSlope: 0
      tangentMode: 0
      weightedMode: 0
      inWeight: 0
      outWeight: 0
    - serializedVersion: 3
      time: 1
      value: 0
      inSlope: 0
      outSlope: 0
      tangentMode: 0
      weightedMode: 0
      inWeight: 0
      outWeight: 0
    m_PreInfinity: 2
    m_PostInfinity: 2
    m_RotationOrder: 4
  splitProbaCurve:
    serializedVersion: 2
    m_Curve:
    - serializedVersion: 3
      time: 0
      value: 0.5
      inSlope: 0
      outSlope: 0.5
      tangentMode: 0
      weightedMode: 0
      inWeight: 0
      outWeight: 0
    - serializedVersion: 3
      time: 1
      value: 1
      inSlope: 0.5
      outSlope: 0
      tangentMode: 0
      weightedMode: 0
      inWeight: 0
      outWeight: 0
    m_PreInfinity: 2
    m_PostInfinity: 2
    m_RotationOrder: 4
  radius: 0.6
  randomness: 0.25
  upAttraction: 0.5
  start: 0.2
  gravityStrength: 0.1
--- !u!114 &11400000
MonoBehaviour:
  m_ObjectHideFlags: 0
  m_CorrespondingSourceObject: {fileID: 0}
  m_PrefabInstance: {fileID: 0}
  m_PrefabAsset: {fileID: 0}
  m_GameObject: {fileID: 0}
  m_Enabled: 1
  m_EditorHideFlags: 0
  m_Script: {fileID: 11500000, guid: 58c179839cc7e1e4bb7fdb33c0866483, type: 3}
  m_Name: Tree
  m_EditorClassIdentifier: 
  treeFunctions:
  - {fileID: 6675924545984750120}
  - {fileID: -2226411092820487969}
  - {fileID: 1692017977678766647}
--- !u!114 &1692017977678766647
MonoBehaviour:
  m_ObjectHideFlags: 0
  m_CorrespondingSourceObject: {fileID: 0}
  m_PrefabInstance: {fileID: 0}
  m_PrefabAsset: {fileID: 0}
  m_GameObject: {fileID: 0}
  m_Enabled: 1
  m_EditorHideFlags: 0
  m_Script: {fileID: 11500000, guid: 85d8cd2303af54543a4524493d539ae8, type: 3}
  m_Name: Leaves
  m_EditorClassIdentifier: 
  seed: 96
  id: 687444766
  parent: {fileID: -2226411092820487969}
  chiildren: []
  enabled: 1
  showDeleteButton: 1
  rect:
    serializedVersion: 2
    x: 60
    y: 68
    width: 200
    height: 37
  deleteRect:
    serializedVersion: 2
    x: 230
    y: 77
    width: 18
    height: 18
  leafType: 2
  number: 150
  customLeafMesh: {fileID: 0}
  maxRadius: 0.25
  size: 5
  overrideNormals: 0
  minWeight: 0.2
  maxWeight: 0.5
  length: 2
  lengthCurve:
    serializedVersion: 2
    m_Curve:
    - serializedVersion: 3
      time: 0
      value: 1
      inSlope: 0
      outSlope: -0.5
      tangentMode: 0
      weightedMode: 0
      inWeight: 0
      outWeight: 0
    - serializedVersion: 3
      time: 1
      value: 0.5
      inSlope: -0.5
      outSlope: 0
      tangentMode: 0
      weightedMode: 0
      inWeight: 0
      outWeight: 0
    m_PreInfinity: 2
    m_PostInfinity: 2
    m_RotationOrder: 4
  uLoops: 2
  resolution: 1
  gravityStrength: 1
--- !u!114 &6675924545984750120
MonoBehaviour:
  m_ObjectHideFlags: 0
  m_CorrespondingSourceObject: {fileID: 0}
  m_PrefabInstance: {fileID: 0}
  m_PrefabAsset: {fileID: 0}
  m_GameObject: {fileID: 0}
  m_Enabled: 1
  m_EditorHideFlags: 0
  m_Script: {fileID: 11500000, guid: 156ba2a5f4fc7bf47b493b7cbf9c7f19, type: 3}
  m_Name: Trunk
  m_EditorClassIdentifier: 
  seed: 654
  id: 1499625706
  parent: {fileID: 0}
  chiildren:
  - {fileID: -2226411092820487969}
  enabled: 1
  showDeleteButton: 0
  rect:
    serializedVersion: 2
    x: 0
    y: 0
    width: 200
    height: 37
  deleteRect:
    serializedVersion: 2
    x: 0
    y: 0
    width: 0
    height: 0
  radiusMultiplier: 0.2
  radius:
    serializedVersion: 2
    m_Curve:
    - serializedVersion: 3
      time: 0
      value: 1
      inSlope: 0
      outSlope: 0
      tangentMode: 0
      weightedMode: 0
      inWeight: 0
      outWeight: 0
    - serializedVersion: 3
      time: 1
      value: 0
      inSlope: -1
      outSlope: -1
      tangentMode: 0
      weightedMode: 0
      inWeight: 0
      outWeight: 0
    m_PreInfinity: 2
    m_PostInfinity: 2
    m_RotationOrder: 4
  length: 20
  number: 1
  randomness: 0.1
  originAttraction: 0.29
  resolution: 1
  rootShape:
    serializedVersion: 2
    m_Curve:
    - serializedVersion: 3
      time: 0
      value: 0.94247437
      inSlope: -2
      outSlope: -2
      tangentMode: 0
      weightedMode: 0
      inWeight: 0
      outWeight: 0
    - serializedVersion: 3
      time: 0.17707805
      value: 0.6196749
      inSlope: -1.645844
      outSlope: -1.645844
      tangentMode: 0
      weightedMode: 0
      inWeight: 0.33333334
      outWeight: 0.33333334
    - serializedVersion: 3
      time: 0.42053795
      value: 0.3400294
      inSlope: -0.36870334
      outSlope: -0.36870334
      tangentMode: 0
      weightedMode: 0
      inWeight: 0.33333334
      outWeight: 0.33333334
    - serializedVersion: 3
      time: 1.2666667
      value: 0.19483286
      inSlope: 0
      outSlope: 0
      tangentMode: 0
      weightedMode: 0
      inWeight: 0
      outWeight: 0
    m_PreInfinity: 2
    m_PostInfinity: 2
    m_RotationOrder: 4
  rootRadius: 1.15
  rootInnerRadius: 0.061
  rootHeight: 4.29
  rootResolution: 1
  flareNumber: 1
  spinAmount: 0.1
  displacementStrength: 1
  displacementSize: 2.5
  heightOffset: 0.61
