%YAML 1.1
%TAG !u! tag:unity3d.com,2011:
--- !u!21 &2100000
Material:
  serializedVersion: 6
  m_ObjectHideFlags: 0
  m_CorrespondingSourceObject: {fileID: 0}
  m_PrefabInstance: {fileID: 0}
  m_PrefabAsset: {fileID: 0}
  m_Name: Bark
  m_Shader: {fileID: 4800000, guid: 54e868cc3a25a4a46a5331e0d7853e67, type: 3}
  m_ShaderKeywords: 
  m_LightmapFlags: 4
  m_EnableInstancingVariants: 0
  m_DoubleSidedGI: 0
  m_CustomRenderQueue: -1
  stringTagMap: {}
  disabledShaderPasses: []
  m_SavedProperties:
    serializedVersion: 3
    m_TexEnvs:
    - _BumpMap:
        m_Texture: {fileID: 0}
        m_Scale: {x: 1, y: 1}
        m_Offset: {x: 0, y: 0}
    - _DetailAlbedoMap:
        m_Texture: {fileID: 2800000, guid: 9e2bd545dcb51d645bc6ad55a98bf40f, type: 3}
        m_Scale: {x: 1, y: 1}
        m_Offset: {x: 0, y: 0}
    - _DetailNormalMap:
        m_Texture: {fileID: 0}
        m_Scale: {x: 1, y: 1}
        m_Offset: {x: 0, y: 0}
    - _MainTex:
        m_Texture: {fileID: 0}
        m_Scale: {x: 1, y: 1}
        m_Offset: {x: 0, y: 0}
    - _texcoord:
        m_Texture: {fileID: 0}
        m_Scale: {x: 1, y: 1}
        m_Offset: {x: 0, y: 0}
    m_Floats:
    - _BaseDetail: 1
    - _BumpScale: 1
    - _CullMode: 2
    - _GlobalWindInfluence: 1
    - _Glossiness: 0
    - _GlossinessThreshold: 0
    - _GlossinessVariance: 0
    - _GlossyReflections: 1
    - _Height: 0
    - _Metallic: 0
    - _OcclusionStrength: 0.6
    - _Smooth: 0.02
    - _SpecularHighlights: 1
    - _TextureInfluence: 0.5
    - __dirty: 1
    m_Colors:
    - _Color: {r: 1, g: 1, b: 1, a: 0}
    - _DetailColor: {r: 1, g: 1, b: 1, a: 0}
