%YAML 1.1
%TAG !u! tag:unity3d.com,2011:
--- !u!21 &2100000
Material:
  serializedVersion: 6
  m_ObjectHideFlags: 0
  m_CorrespondingSourceObject: {fileID: 0}
  m_PrefabInstance: {fileID: 0}
  m_PrefabAsset: {fileID: 0}
  m_Name: Bark Oak
  m_Shader: {fileID: 4800000, guid: 54e868cc3a25a4a46a5331e0d7853e67, type: 3}
  m_ShaderKeywords: 
  m_LightmapFlags: 4
  m_EnableInstancingVariants: 1
  m_DoubleSidedGI: 0
  m_CustomRenderQueue: -1
  stringTagMap:
    MotionVector: User
  disabledShaderPasses:
  - MOTIONVECTORS
  m_SavedProperties:
    serializedVersion: 3
    m_TexEnvs:
    - _Albedo:
        m_Texture: {fileID: 2800000, guid: 22d7e1b6540cf8d4ba00f70d0617863f, type: 3}
        m_Scale: {x: 1, y: 1}
        m_Offset: {x: 0, y: 0}
    - _BumpMap:
        m_Texture: {fileID: 2800000, guid: d8e4c639cdebf4e4a82404ea5668733b, type: 3}
        m_Scale: {x: 1, y: 1}
        m_Offset: {x: 0, y: 0}
    - _Detail:
        m_Texture: {fileID: 0}
        m_Scale: {x: 1, y: 1}
        m_Offset: {x: 0, y: 0}
    - _DetailAlbedoMap:
        m_Texture: {fileID: 2800000, guid: 874120e7f6d062442a131836cdfec782, type: 3}
        m_Scale: {x: 1, y: 1}
        m_Offset: {x: 0, y: 0}
    - _DetailMask:
        m_Texture: {fileID: 0}
        m_Scale: {x: 1, y: 1}
        m_Offset: {x: 0, y: 0}
    - _DetailNormal:
        m_Texture: {fileID: 0}
        m_Scale: {x: 1, y: 1}
        m_Offset: {x: 0, y: 0}
    - _DetailNormalMap:
        m_Texture: {fileID: 2800000, guid: 97f9c8e269ef2f941a8492f6f28cda2c, type: 3}
        m_Scale: {x: 1, y: 1}
        m_Offset: {x: 0, y: 0}
    - _EmissionMap:
        m_Texture: {fileID: 0}
        m_Scale: {x: 1, y: 1}
        m_Offset: {x: 0, y: 0}
    - _MainTex:
        m_Texture: {fileID: 2800000, guid: 2fcf5f7228e38b347849b5adb05e9b9c, type: 3}
        m_Scale: {x: 1, y: 0.5}
        m_Offset: {x: 0, y: 0}
    - _MetallicGlossMap:
        m_Texture: {fileID: 0}
        m_Scale: {x: 1, y: 1}
        m_Offset: {x: 0, y: 0}
    - _OcclusionMap:
        m_Texture: {fileID: 0}
        m_Scale: {x: 1, y: 1}
        m_Offset: {x: 0, y: 0}
    - _ParallaxMap:
        m_Texture: {fileID: 0}
        m_Scale: {x: 1, y: 1}
        m_Offset: {x: 0, y: 0}
    - _SSSMap:
        m_Texture: {fileID: 0}
        m_Scale: {x: 1, y: 1}
        m_Offset: {x: 0, y: 0}
    - _texcoord:
        m_Texture: {fileID: 0}
        m_Scale: {x: 1, y: 1}
        m_Offset: {x: 0, y: 0}
    m_Floats:
    - GlobalWindInfluence: 1
    - GlobalWindInfluence1: 1
    - _AlphaCutoff: 0.5
    - _AlphaCutoffEnable: 0
    - _AlphaDstBlend: 0
    - _AlphaSrcBlend: 1
    - _Ao: 0.682
    - _BaseDetail: 0
    - _BlendMode: 0
    - _BumpScale: 1
    - _BumpStrength: 1.5
    - _ColorVariation: 0.15
    - _CullMode: 2
    - _CullMode1: 0
    - _CullModeForward: 2
    - _Cutoff: 0.5
    - _DetailNormalMapScale: 1
    - _Distortion: 2
    - _DoubleSidedEnable: 0
    - _DoubleSidedNormalMode: 0
    - _DstBlend: 0
    - _GlobalTurbulenceInfluence: 1
    - _GlobalWindInflucene1: 1
    - _GlobalWindInfluence: 0.999
    - _GlossMapScale: 1
    - _Glossiness: 0
    - _GlossinessThreshold: 0
    - _GlossinessVariance: 0
    - _GlossyReflections: 1
    - _Height: 0.716
    - _Hue: 0
    - _LocalWindStrength: 0
    - _LocalWindStrength1: 0
    - _Metallic: 0
    - _Mode: 0
    - _OcclusionStrength: 1
    - _Parallax: 0.02
    - _Power: 2
    - _ReceivesSSR: 1
    - _RenderQueueType: 1
    - _RequireSplitLighting: 0
    - _SSSPower: 2.5
    - _SSSScale: 0.1
    - _Saturation: 1
    - _Scale: 2
    - _Smooth: 0.212
    - _Smoothness: 0.209
    - _SmoothnessTextureChannel: 0
    - _SmoothnessThreshold: 0.318
    - _SmoothnessVariance: 0.397
    - _SpecularHighlights: 1
    - _SrcBlend: 1
    - _StencilRef: 0
    - _StencilRefDepth: 0
    - _StencilRefDistortionVec: 64
    - _StencilRefGBuffer: 2
    - _StencilRefMV: 128
    - _StencilWriteMask: 3
    - _StencilWriteMaskDepth: 32
    - _StencilWriteMaskDistortionVec: 64
    - _StencilWriteMaskGBuffer: 3
    - _StencilWriteMaskMV: 128
    - _SubsurfaceDistortion: 0.8
    - _SurfaceType: 0
    - _TextureInfluence: 0.512
    - _TransparentBackfaceEnable: 0
    - _TransparentCullMode: 2
    - _TransparentSortPriority: 0
    - _UVSec: 0
    - _UseShadowThreshold: 0
    - _Value: 1
    - _WindMode: 0
    - _WindStrength: 0.1
    - _ZTestDepthEqualForOpaque: 4
    - _ZTestGBuffer: 4
    - _ZTestTransparent: 4
    - _ZWrite: 1
    - __dirty: 1
    m_Colors:
    - _Color: {r: 1, g: 1, b: 1, a: 1}
    - _DetailColor: {r: 1, g: 1, b: 1, a: 0}
    - _DoubleSidedConstants: {r: 1, g: 1, b: -1, a: 0}
    - _EmissionColor: {r: 0, g: 0, b: 0, a: 1}
    - _SSSColor: {r: 0.5, g: 0.5, b: 0.5, a: 1}
