%YAML 1.1
%TAG !u! tag:unity3d.com,2011:
--- !u!1001 &648058026257237586
PrefabInstance:
  m_ObjectHideFlags: 0
  serializedVersion: 2
  m_Modification:
    m_TransformParent: {fileID: 0}
    m_Modifications:
    - target: {fileID: -927199367670048503, guid: 5c4ad53b8506bdf448391ad2891642af,
        type: 3}
      propertyPath: m_Name
      value: Gear_Clock
      objectReference: {fileID: 0}
    - target: {fileID: -9018034565698141591, guid: 5c4ad53b8506bdf448391ad2891642af,
        type: 3}
      propertyPath: m_Materials.Array.data[0]
      value: 
      objectReference: {fileID: 2100000, guid: ed9e9ab551aa32e46996c85da5b227c0, type: 2}
    - target: {fileID: -8515962650949195588, guid: 5c4ad53b8506bdf448391ad2891642af,
        type: 3}
      propertyPath: m_Materials.Array.data[0]
      value: 
      objectReference: {fileID: 2100000, guid: ed9e9ab551aa32e46996c85da5b227c0, type: 2}
    - target: {fileID: -7321577025499637777, guid: 5c4ad53b8506bdf448391ad2891642af,
        type: 3}
      propertyPath: m_Materials.Array.data[0]
      value: 
      objectReference: {fileID: 2100000, guid: ed9e9ab551aa32e46996c85da5b227c0, type: 2}
    - target: {fileID: -4216859302048453862, guid: 5c4ad53b8506bdf448391ad2891642af,
        type: 3}
      propertyPath: m_LocalPosition.x
      value: 0
      objectReference: {fileID: 0}
    - target: {fileID: -4216859302048453862, guid: 5c4ad53b8506bdf448391ad2891642af,
        type: 3}
      propertyPath: m_LocalPosition.y
      value: 3.59
      objectReference: {fileID: 0}
    - target: {fileID: -4216859302048453862, guid: 5c4ad53b8506bdf448391ad2891642af,
        type: 3}
      propertyPath: m_LocalPosition.z
      value: 0
      objectReference: {fileID: 0}
    - target: {fileID: -4216859302048453862, guid: 5c4ad53b8506bdf448391ad2891642af,
        type: 3}
      propertyPath: m_LocalRotation.x
      value: 0.7071068
      objectReference: {fileID: 0}
    - target: {fileID: -4216859302048453862, guid: 5c4ad53b8506bdf448391ad2891642af,
        type: 3}
      propertyPath: m_LocalRotation.y
      value: 0
      objectReference: {fileID: 0}
    - target: {fileID: -4216859302048453862, guid: 5c4ad53b8506bdf448391ad2891642af,
        type: 3}
      propertyPath: m_LocalRotation.z
      value: 0
      objectReference: {fileID: 0}
    - target: {fileID: -4216859302048453862, guid: 5c4ad53b8506bdf448391ad2891642af,
        type: 3}
      propertyPath: m_LocalRotation.w
      value: 0.7071068
      objectReference: {fileID: 0}
    - target: {fileID: -4216859302048453862, guid: 5c4ad53b8506bdf448391ad2891642af,
        type: 3}
      propertyPath: m_RootOrder
      value: 0
      objectReference: {fileID: 0}
    - target: {fileID: -4216859302048453862, guid: 5c4ad53b8506bdf448391ad2891642af,
        type: 3}
      propertyPath: m_LocalEulerAnglesHint.x
      value: 90
      objectReference: {fileID: 0}
    - target: {fileID: -4216859302048453862, guid: 5c4ad53b8506bdf448391ad2891642af,
        type: 3}
      propertyPath: m_LocalEulerAnglesHint.y
      value: 0
      objectReference: {fileID: 0}
    - target: {fileID: -4216859302048453862, guid: 5c4ad53b8506bdf448391ad2891642af,
        type: 3}
      propertyPath: m_LocalEulerAnglesHint.z
      value: 0
      objectReference: {fileID: 0}
    - target: {fileID: -3593945733793706862, guid: 5c4ad53b8506bdf448391ad2891642af,
        type: 3}
      propertyPath: m_Materials.Array.data[0]
      value: 
      objectReference: {fileID: 2100000, guid: ed9e9ab551aa32e46996c85da5b227c0, type: 2}
    - target: {fileID: 3960745796754708825, guid: 5c4ad53b8506bdf448391ad2891642af,
        type: 3}
      propertyPath: m_Materials.Array.data[0]
      value: 
      objectReference: {fileID: 2100000, guid: ed9e9ab551aa32e46996c85da5b227c0, type: 2}
    - target: {fileID: 5569382164528438534, guid: 5c4ad53b8506bdf448391ad2891642af,
        type: 3}
      propertyPath: m_Materials.Array.data[0]
      value: 
      objectReference: {fileID: 2100000, guid: ed9e9ab551aa32e46996c85da5b227c0, type: 2}
    - target: {fileID: 6993051982550269841, guid: 5c4ad53b8506bdf448391ad2891642af,
        type: 3}
      propertyPath: m_Materials.Array.data[0]
      value: 
      objectReference: {fileID: 2100000, guid: ed9e9ab551aa32e46996c85da5b227c0, type: 2}
    - target: {fileID: 8412516483601674962, guid: 5c4ad53b8506bdf448391ad2891642af,
        type: 3}
      propertyPath: m_Materials.Array.data[0]
      value: 
      objectReference: {fileID: 2100000, guid: ed9e9ab551aa32e46996c85da5b227c0, type: 2}
    - target: {fileID: 8623602228590123651, guid: 5c4ad53b8506bdf448391ad2891642af,
        type: 3}
      propertyPath: m_Materials.Array.data[0]
      value: 
      objectReference: {fileID: 2100000, guid: ed9e9ab551aa32e46996c85da5b227c0, type: 2}
    m_RemovedComponents: []
  m_SourcePrefab: {fileID: 100100000, guid: 5c4ad53b8506bdf448391ad2891642af, type: 3}
