%YAML 1.1
%TAG !u! tag:unity3d.com,2011:
--- !u!64 &8038599039277066313
MeshCollider:
  m_ObjectHideFlags: 0
  m_CorrespondingSourceObject: {fileID: 0}
  m_PrefabInstance: {fileID: 0}
  m_PrefabAsset: {fileID: 0}
  m_GameObject: {fileID: 3997687759567594756}
  m_Material: {fileID: 0}
  m_IsTrigger: 0
  m_Enabled: 1
  serializedVersion: 3
  m_Convex: 1
  m_CookingOptions: 14
  m_Mesh: {fileID: 7824271557591217627, guid: 650b1f17eabb85b44941083fee77866d, type: 3}
--- !u!1001 &4925617205107457037
PrefabInstance:
  m_ObjectHideFlags: 0
  serializedVersion: 2
  m_Modification:
    m_TransformParent: {fileID: 0}
    m_Modifications:
    - target: {fileID: -927199367670048503, guid: 650b1f17eabb85b44941083fee77866d,
        type: 3}
      propertyPath: m_Name
      value: Pipe_Curve Variant
      objectReference: {fileID: 0}
    - target: {fileID: -927199367670048503, guid: 650b1f17eabb85b44941083fee77866d,
        type: 3}
      propertyPath: m_Layer
      value: 16
      objectReference: {fileID: 0}
    - target: {fileID: -4216859302048453862, guid: 650b1f17eabb85b44941083fee77866d,
        type: 3}
      propertyPath: m_LocalPosition.x
      value: -6.717861
      objectReference: {fileID: 0}
    - target: {fileID: -4216859302048453862, guid: 650b1f17eabb85b44941083fee77866d,
        type: 3}
      propertyPath: m_LocalPosition.y
      value: 0.30644947
      objectReference: {fileID: 0}
    - target: {fileID: -4216859302048453862, guid: 650b1f17eabb85b44941083fee77866d,
        type: 3}
      propertyPath: m_LocalPosition.z
      value: 8.967161
      objectReference: {fileID: 0}
    - target: {fileID: -4216859302048453862, guid: 650b1f17eabb85b44941083fee77866d,
        type: 3}
      propertyPath: m_LocalRotation.x
      value: -0.6272114
      objectReference: {fileID: 0}
    - target: {fileID: -4216859302048453862, guid: 650b1f17eabb85b44941083fee77866d,
        type: 3}
      propertyPath: m_LocalRotation.y
      value: 0.3265056
      objectReference: {fileID: 0}
    - target: {fileID: -4216859302048453862, guid: 650b1f17eabb85b44941083fee77866d,
        type: 3}
      propertyPath: m_LocalRotation.z
      value: -0.3265056
      objectReference: {fileID: 0}
    - target: {fileID: -4216859302048453862, guid: 650b1f17eabb85b44941083fee77866d,
        type: 3}
      propertyPath: m_LocalRotation.w
      value: 0.6272114
      objectReference: {fileID: 0}
    - target: {fileID: -4216859302048453862, guid: 650b1f17eabb85b44941083fee77866d,
        type: 3}
      propertyPath: m_RootOrder
      value: 0
      objectReference: {fileID: 0}
    - target: {fileID: -4216859302048453862, guid: 650b1f17eabb85b44941083fee77866d,
        type: 3}
      propertyPath: m_LocalEulerAnglesHint.x
      value: 0
      objectReference: {fileID: 0}
    - target: {fileID: -4216859302048453862, guid: 650b1f17eabb85b44941083fee77866d,
        type: 3}
      propertyPath: m_LocalEulerAnglesHint.y
      value: 0
      objectReference: {fileID: 0}
    - target: {fileID: -4216859302048453862, guid: 650b1f17eabb85b44941083fee77866d,
        type: 3}
      propertyPath: m_LocalEulerAnglesHint.z
      value: 0
      objectReference: {fileID: 0}
    - target: {fileID: -1504981713932161579, guid: 650b1f17eabb85b44941083fee77866d,
        type: 3}
      propertyPath: m_Materials.Array.data[0]
      value: 
      objectReference: {fileID: 2100000, guid: 1680da0b88a85cb4085cf2f4fd127702, type: 2}
    m_RemovedComponents: []
  m_SourcePrefab: {fileID: 100100000, guid: 650b1f17eabb85b44941083fee77866d, type: 3}
--- !u!1 &3997687759567594756 stripped
GameObject:
  m_CorrespondingSourceObject: {fileID: -927199367670048503, guid: 650b1f17eabb85b44941083fee77866d,
    type: 3}
  m_PrefabInstance: {fileID: 4925617205107457037}
  m_PrefabAsset: {fileID: 0}
