%YAML 1.1
%TAG !u! tag:unity3d.com,2011:
--- !u!21 &2100000
Material:
  serializedVersion: 6
  m_ObjectHideFlags: 0
  m_CorrespondingSourceObject: {fileID: 0}
  m_PrefabInstance: {fileID: 0}
  m_PrefabAsset: {fileID: 0}
  m_Name: Leaves
  m_Shader: {fileID: 4800000, guid: 364ae1069b1778f43b5e632a66bdb48e, type: 3}
  m_ShaderKeywords: 
  m_LightmapFlags: 4
  m_EnableInstancingVariants: 0
  m_DoubleSidedGI: 0
  m_CustomRenderQueue: -1
  stringTagMap: {}
  disabledShaderPasses: []
  m_SavedProperties:
    serializedVersion: 3
    m_TexEnvs:
    - _BumpMap:
        m_Texture: {fileID: 0}
        m_Scale: {x: 1, y: 1}
        m_Offset: {x: 0, y: 0}
    - _MainTex:
        m_Texture: {fileID: 2800000, guid: e3df54eb3ea987642b2efa958a98316d, type: 3}
        m_Scale: {x: 1, y: 1}
        m_Offset: {x: 0, y: 0}
    - _texcoord:
        m_Texture: {fileID: 0}
        m_Scale: {x: 1, y: 1}
        m_Offset: {x: 0, y: 0}
    m_Floats:
    - _BumpScale: 1
    - _ColorVariation: 0.15
    - _CullMode: 0
    - _Cutoff: 0.5
    - _Distortion: 2
    - _DoubleSidedNormalMode: 0
    - _GlobalTurbulenceInfluence: 1
    - _GlobalWindInfluence: 1
    - _Glossiness: 0
    - _GlossinessThreshold: 0
    - _GlossinessVariance: 0
    - _GlossyReflections: 1
    - _Hue: 0
    - _LightSouce: 0
    - _Metallic: 0
    - _OcclusionStrength: 0.6
    - _Power: 2
    - _Saturation: 1
    - _Scale: 2
    - _SpecularHighlights: 1
    - _Value: 1
    - _WindMode: 0
    - __dirty: 1
    m_Colors:
    - _Color: {r: 1, g: 1, b: 1, a: 1}
    - _TranslucentColor: {r: 1, g: 1, b: 1, a: 1}
